<?xml version="1.0" encoding="UTF-8" standalone="no"?>
<!-- Created with Inkscape (http://www.inkscape.org/) -->

<svg
   xmlns:dc="http://purl.org/dc/elements/1.1/"
   xmlns:cc="http://creativecommons.org/ns#"
   xmlns:rdf="http://www.w3.org/1999/02/22-rdf-syntax-ns#"
   xmlns:svg="http://www.w3.org/2000/svg"
   xmlns="http://www.w3.org/2000/svg"
   xmlns:xlink="http://www.w3.org/1999/xlink"
   xmlns:sodipodi="http://sodipodi.sourceforge.net/DTD/sodipodi-0.dtd"
   xmlns:inkscape="http://www.inkscape.org/namespaces/inkscape"
   width="1052.3622"
   height="744.09448"
   id="svg2"
   version="1.1"
   inkscape:version="0.48.1 r9760"
   sodipodi:docname="75percent.svg">
  <defs
     id="defs4">
    <linearGradient
       inkscape:collect="always"
       id="linearGradient3766">
      <stop
         style="stop-color:#030500;stop-opacity:1"
         offset="0"
         id="stop3768" />
      <stop
         style="stop-color:#2e3436;stop-opacity:1"
         offset="1"
         id="stop3770" />
    </linearGradient>
    <linearGradient
       inkscape:collect="always"
       xlink:href="#linearGradient3766"
       id="linearGradient3899"
       gradientUnits="userSpaceOnUse"
       x1="503.17233"
       y1="3.8865433"
       x2="503.17233"
       y2="764.10706"
       gradientTransform="matrix(1.0266155,0,0,0.96899836,0.04147298,308.26804)" />
    <filter
       id="filter3907"
       inkscape:label="Drop shadow"
       width="1.5"
       height="1.5"
       x="-0.25"
       y="-0.25"
       color-interpolation-filters="sRGB">
      <feGaussianBlur
         id="feGaussianBlur3909"
         in="SourceAlpha"
         stdDeviation="30"
         result="blur" />
      <feColorMatrix
         id="feColorMatrix3911"
         result="bluralpha"
         type="matrix"
         values="1 0 0 0 0 0 1 0 0 0 0 0 1 0 0 0 0 0 0.5 0 " />
      <feOffset
         id="feOffset3913"
         in="bluralpha"
         dx="20"
         dy="20"
         result="offsetBlur" />
      <feMerge
         id="feMerge3915">
        <feMergeNode
           id="feMergeNode3917"
           in="offsetBlur" />
        <feMergeNode
           id="feMergeNode3919"
           in="SourceGraphic" />
      </feMerge>
    </filter>
  </defs>
  <sodipodi:namedview
     id="base"
     pagecolor="#ffffff"
     bordercolor="#666666"
     borderopacity="1.0"
     inkscape:pageopacity="0"
     inkscape:pageshadow="2"
     inkscape:zoom="256"
     inkscape:cx="1052.1042"
     inkscape:cy="743.71477"
     inkscape:document-units="px"
     inkscape:current-layer="layer1"
     showgrid="false"
     inkscape:window-width="1366"
     inkscape:window-height="710"
     inkscape:window-x="0"
     inkscape:window-y="26"
     inkscape:window-maximized="1"
     showguides="false"
     inkscape:guide-bbox="true">
    <sodipodi:guide
       orientation="1,0"
       position="498.49899,395.68357"
       id="guide3013" />
    <sodipodi:guide
       orientation="0,1"
       position="602.87221,381.66329"
       id="guide3015" />
  </sodipodi:namedview>
  <metadata
     id="metadata7">
    <rdf:RDF>
      <cc:Work
         rdf:about="">
        <dc:format>image/svg+xml</dc:format>
        <dc:type
           rdf:resource="http://purl.org/dc/dcmitype/StillImage" />
        <dc:title />
      </cc:Work>
    </rdf:RDF>
  </metadata>
  <g
     inkscape:label="Camada 1"
     inkscape:groupmode="layer"
     id="layer1"
     transform="translate(0,-308.26769)">
    <rect
       ry="0"
       y="308.26804"
       x="-1.5577983"
       height="747.20978"
       width="1053.9197"
       id="rect2996"
       style="color:#000000;fill:url(#linearGradient3899);fill-opacity:1;fill-rule:nonzero;stroke:none;stroke-width:7.93495226;marker:none;visibility:visible;display:inline;overflow:visible;enable-background:accumulate" />
    <g
       id="g3901"
       style="filter:url(#filter3907)">
      <path
         transform="matrix(-0.70710678,-0.70710678,0.70710678,-0.70710678,602.04356,1452.7905)"
         d="m 875.48888,479.80527 c 0,137.65669 -111.5928,249.24949 -249.2495,249.24949 -137.6567,0 -249.2495,-111.5928 -249.2495,-249.24949 0,-137.6567 111.5928,-249.2495 249.2495,-249.2495 137.6567,0 249.2495,111.5928 249.2495,249.2495 z"
         sodipodi:ry="249.2495"
         sodipodi:rx="249.2495"
         sodipodi:cy="479.80527"
         sodipodi:cx="626.23938"
         id="path2987"
         style="color:#000000;fill:#252a2c;fill-opacity:1;fill-rule:nonzero;stroke:none;stroke-width:7.93495226;marker:none;visibility:visible;display:inline;overflow:visible;enable-background:accumulate"
         sodipodi:type="arc" />
      <path
         sodipodi:nodetypes="scccss"
         inkscape:connector-curvature="0"
         id="path2991"
         d="m 322.253,494.45282 c 97.33798,-97.33798 255.15403,-97.33798 352.49201,0 -112.35681,112.35685 -176.24599,176.24602 -176.24599,176.24602 0,0 34.14766,34.14766 176.246,176.246 -97.33799,97.33799 -255.15404,97.33799 -352.49202,0 -97.33799,-97.33799 -97.33799,-255.15404 0,-352.49202 z"
         style="color:#000000;fill:#a40000;fill-opacity:1;fill-rule:nonzero;stroke:none;stroke-width:7.93495226;marker:none;visibility:visible;display:inline;overflow:visible;enable-background:accumulate" />
      <text
         xml:space="preserve"
         style="font-size:72px;font-style:normal;font-variant:normal;font-weight:bold;font-stretch:normal;line-height:125%;letter-spacing:0px;word-spacing:0px;fill:#ffffff;fill-opacity:1;stroke:none;font-family:Droid Sans;-inkscape-font-specification:Droid Sans Bold"
         x="316.12164"
         y="691.79431"
         id="text3059"
         sodipodi:linespacing="125%"><tspan
           sodipodi:role="line"
           id="tspan3061"
           x="316.12164"
           y="691.79431">75%</tspan></text>
    </g>
  </g>
</svg>
