<?xml version="1.0" encoding="UTF-8" standalone="no"?>
<!-- Created with Inkscape (http://www.inkscape.org/) -->

<svg
   xmlns:dc="http://purl.org/dc/elements/1.1/"
   xmlns:cc="http://creativecommons.org/ns#"
   xmlns:rdf="http://www.w3.org/1999/02/22-rdf-syntax-ns#"
   xmlns:svg="http://www.w3.org/2000/svg"
   xmlns="http://www.w3.org/2000/svg"
   xmlns:xlink="http://www.w3.org/1999/xlink"
   xmlns:sodipodi="http://sodipodi.sourceforge.net/DTD/sodipodi-0.dtd"
   xmlns:inkscape="http://www.inkscape.org/namespaces/inkscape"
   width="1024"
   height="768"
   id="svg3860"
   version="1.1"
   inkscape:version="0.48.1 r9760"
   sodipodi:docname="change-diffusion.svg"
   inkscape:export-filename="/home/terceiro/research/papers/2012/sc-factors/video/change-diffusion.png"
   inkscape:export-xdpi="150"
   inkscape:export-ydpi="150">
  <defs
     id="defs3862">
    <linearGradient
       id="linearGradient3811"
       inkscape:collect="always">
      <stop
         id="stop3813"
         offset="0"
         style="stop-color:#fcaf3e;stop-opacity:1" />
      <stop
         id="stop3815"
         offset="1"
         style="stop-color:#ffffff;stop-opacity:1" />
    </linearGradient>
    <linearGradient
       id="linearGradient3037"
       inkscape:collect="always">
      <stop
         id="stop3039"
         offset="0"
         style="stop-color:#babdb6;stop-opacity:1" />
      <stop
         id="stop3041"
         offset="1"
         style="stop-color:#ffffff;stop-opacity:1" />
    </linearGradient>
    <linearGradient
       id="linearGradient3031"
       inkscape:collect="always">
      <stop
         id="stop3033"
         offset="0"
         style="stop-color:#e9b96e;stop-opacity:1" />
      <stop
         id="stop3035"
         offset="1"
         style="stop-color:#ffffff;stop-opacity:1" />
    </linearGradient>
    <linearGradient
       id="linearGradient3025"
       inkscape:collect="always">
      <stop
         id="stop3027"
         offset="0"
         style="stop-color:#ad7fa8;stop-opacity:1" />
      <stop
         id="stop3029"
         offset="1"
         style="stop-color:#ffffff;stop-opacity:1" />
    </linearGradient>
    <linearGradient
       inkscape:collect="always"
       id="linearGradient4430">
      <stop
         style="stop-color:#ef2929;stop-opacity:1"
         offset="0"
         id="stop4432" />
      <stop
         style="stop-color:#fbc7c7;stop-opacity:1"
         offset="1"
         id="stop4434" />
    </linearGradient>
    <linearGradient
       id="linearGradient4420"
       inkscape:collect="always">
      <stop
         id="stop4422"
         offset="0"
         style="stop-color:#729fcf;stop-opacity:1" />
      <stop
         id="stop4424"
         offset="1"
         style="stop-color:#c7e1fb;stop-opacity:1" />
    </linearGradient>
    <linearGradient
       inkscape:collect="always"
       id="linearGradient4396">
      <stop
         style="stop-color:#fce94f;stop-opacity:1;"
         offset="0"
         id="stop4398" />
      <stop
         style="stop-color:#fce94f;stop-opacity:0;"
         offset="1"
         id="stop4400" />
    </linearGradient>
    <linearGradient
       inkscape:collect="always"
       id="linearGradient4388">
      <stop
         style="stop-color:#8ae234;stop-opacity:1;"
         offset="0"
         id="stop4390" />
      <stop
         style="stop-color:#8ae234;stop-opacity:0;"
         offset="1"
         id="stop4392" />
    </linearGradient>
    <linearGradient
       inkscape:collect="always"
       xlink:href="#linearGradient4388"
       id="linearGradient4394"
       x1="272.24741"
       y1="678.38245"
       x2="321.21304"
       y2="624.63806"
       gradientUnits="userSpaceOnUse"
       gradientTransform="matrix(1.2081691,0,0,1.2081691,-64.35611,-48.324519)" />
    <linearGradient
       inkscape:collect="always"
       xlink:href="#linearGradient4396"
       id="linearGradient4402"
       x1="213.27782"
       y1="280.98984"
       x2="243.54976"
       y2="249.44421"
       gradientUnits="userSpaceOnUse"
       gradientTransform="matrix(1.2081691,0,0,1.2081691,-64.35611,527.20155)" />
    <linearGradient
       inkscape:collect="always"
       xlink:href="#linearGradient4396"
       id="linearGradient4406"
       gradientUnits="userSpaceOnUse"
       x1="213.27782"
       y1="280.98984"
       x2="243.54976"
       y2="249.44421"
       gradientTransform="matrix(1.2081691,0,0,1.2081691,32.297416,527.20155)" />
    <linearGradient
       inkscape:collect="always"
       xlink:href="#linearGradient4396"
       id="linearGradient4410"
       gradientUnits="userSpaceOnUse"
       gradientTransform="matrix(1.2081691,0,0,1.2081691,128.95094,527.20155)"
       x1="213.27782"
       y1="280.98984"
       x2="243.54976"
       y2="249.44421" />
    <linearGradient
       inkscape:collect="always"
       xlink:href="#linearGradient4420"
       id="linearGradient4418"
       gradientUnits="userSpaceOnUse"
       gradientTransform="matrix(1.2081691,0,0,1.2081691,346.42138,527.20155)"
       x1="229.48804"
       y1="264.85049"
       x2="243.54976"
       y2="249.44421" />
    <linearGradient
       inkscape:collect="always"
       xlink:href="#linearGradient3037"
       id="linearGradient4428"
       gradientUnits="userSpaceOnUse"
       gradientTransform="matrix(1.2081691,0,0,1.2081691,467.23829,527.20155)"
       x1="229.48804"
       y1="264.85049"
       x2="243.54976"
       y2="249.44421" />
    <linearGradient
       inkscape:collect="always"
       xlink:href="#linearGradient3031"
       id="linearGradient4438"
       gradientUnits="userSpaceOnUse"
       gradientTransform="matrix(1.2081691,0,0,1.2081691,467.23829,406.38464)"
       x1="229.48804"
       y1="264.85049"
       x2="243.54976"
       y2="249.44421" />
    <linearGradient
       inkscape:collect="always"
       xlink:href="#linearGradient3025"
       id="linearGradient4442"
       gradientUnits="userSpaceOnUse"
       gradientTransform="matrix(1.2081691,0,0,1.2081691,346.42138,406.38464)"
       x1="229.48804"
       y1="264.85049"
       x2="243.54976"
       y2="249.44421" />
    <linearGradient
       inkscape:collect="always"
       xlink:href="#linearGradient4430"
       id="linearGradient4446"
       gradientUnits="userSpaceOnUse"
       gradientTransform="matrix(1.2081691,0,0,1.2081691,346.42138,648.01846)"
       x1="229.48804"
       y1="264.85049"
       x2="243.54976"
       y2="249.44421" />
    <linearGradient
       inkscape:collect="always"
       xlink:href="#linearGradient3811"
       id="linearGradient4452"
       gradientUnits="userSpaceOnUse"
       gradientTransform="matrix(1.2081691,0,0,1.2081691,467.23829,648.01846)"
       x1="229.48804"
       y1="264.85049"
       x2="243.54976"
       y2="249.44421" />
    <linearGradient
       inkscape:collect="always"
       xlink:href="#linearGradient4430"
       id="linearGradient27928"
       gradientUnits="userSpaceOnUse"
       gradientTransform="matrix(1.2081691,0,0,1.2081691,346.42138,648.01846)"
       x1="229.48804"
       y1="264.85049"
       x2="243.54976"
       y2="249.44421" />
    <linearGradient
       gradientUnits="userSpaceOnUse"
       y2="778.27759"
       x2="586.98999"
       y1="725.7807"
       x1="586.98999"
       id="linearGradient4094"
       xlink:href="#linearGradient4088"
       inkscape:collect="always" />
    <linearGradient
       gradientUnits="userSpaceOnUse"
       y2="743.20349"
       x2="589.87482"
       y1="775.27307"
       x1="589.87482"
       id="linearGradient4086"
       xlink:href="#linearGradient4080"
       inkscape:collect="always" />
    <radialGradient
       r="20"
       fy="764.7193"
       fx="588.42859"
       cy="764.7193"
       cx="588.42859"
       gradientTransform="matrix(1.675,-7.5759065e-7,6.446166e-7,1.4252193,-956.61838,-1048.3922)"
       gradientUnits="userSpaceOnUse"
       id="radialGradient4029"
       xlink:href="#linearGradient4015"
       inkscape:collect="always" />
    <radialGradient
       r="20"
       fy="764.7193"
       fx="588.42859"
       cy="764.7193"
       cx="588.42859"
       gradientTransform="matrix(1.675,-7.5759065e-7,6.446166e-7,1.4252193,-397.18979,-324.17294)"
       gradientUnits="userSpaceOnUse"
       id="radialGradient4027"
       xlink:href="#linearGradient4015"
       inkscape:collect="always" />
    <radialGradient
       gradientTransform="matrix(0.88022728,0,0,1,70.537579,0)"
       gradientUnits="userSpaceOnUse"
       r="25"
       fy="755.2193"
       fx="584.38434"
       cy="755.2193"
       cx="584.38434"
       id="radialGradient3984"
       xlink:href="#linearGradient3978"
       inkscape:collect="always" />
    <linearGradient
       gradientUnits="userSpaceOnUse"
       y2="774.38672"
       x2="584.42859"
       y1="728.2193"
       x1="584.42859"
       id="linearGradient3976"
       xlink:href="#linearGradient3970"
       inkscape:collect="always" />
    <linearGradient
       id="linearGradient3970"
       inkscape:collect="always">
      <stop
         id="stop3972"
         offset="0"
         style="stop-color:#ffffff;stop-opacity:1;" />
      <stop
         id="stop3974"
         offset="1"
         style="stop-color:#ffffff;stop-opacity:0;" />
    </linearGradient>
    <linearGradient
       id="linearGradient3978">
      <stop
         id="stop3980"
         offset="0"
         style="stop-color:#ffffff;stop-opacity:1;" />
      <stop
         id="stop3982"
         offset="1"
         style="stop-color:#d7d8d4;stop-opacity:1;" />
    </linearGradient>
    <linearGradient
       id="linearGradient4015">
      <stop
         id="stop4017"
         offset="0"
         style="stop-color:#5a5a5a;stop-opacity:1;" />
      <stop
         id="stop4019"
         offset="1"
         style="stop-color:#000000;stop-opacity:1;" />
    </linearGradient>
    <linearGradient
       id="linearGradient4080"
       inkscape:collect="always">
      <stop
         id="stop4082"
         offset="0"
         style="stop-color:#000000;stop-opacity:1;" />
      <stop
         id="stop4084"
         offset="1"
         style="stop-color:#000000;stop-opacity:0;" />
    </linearGradient>
    <linearGradient
       id="linearGradient4088"
       inkscape:collect="always">
      <stop
         id="stop4090"
         offset="0"
         style="stop-color:#c7c7c7;stop-opacity:1" />
      <stop
         id="stop4092"
         offset="1"
         style="stop-color:#757575;stop-opacity:1" />
    </linearGradient>
  </defs>
  <sodipodi:namedview
     id="base"
     pagecolor="#ffffff"
     bordercolor="#666666"
     borderopacity="1.0"
     inkscape:pageopacity="1"
     inkscape:pageshadow="2"
     inkscape:zoom="0.64192708"
     inkscape:cx="935.72414"
     inkscape:cy="384"
     inkscape:document-units="px"
     inkscape:current-layer="layer1"
     showgrid="false"
     inkscape:window-width="1366"
     inkscape:window-height="710"
     inkscape:window-x="0"
     inkscape:window-y="26"
     inkscape:window-maximized="1" />
  <metadata
     id="metadata3865">
    <rdf:RDF>
      <cc:Work
         rdf:about="">
        <dc:format>image/svg+xml</dc:format>
        <dc:type
           rdf:resource="http://purl.org/dc/dcmitype/StillImage" />
        <dc:title />
      </cc:Work>
    </rdf:RDF>
  </metadata>
  <g
     inkscape:label="Camada 1"
     inkscape:groupmode="layer"
     id="layer1"
     transform="translate(0,-284.36218)">
    <rect
       style="color:#000000;fill:url(#linearGradient4402);fill-opacity:1;fill-rule:nonzero;stroke:#c4a000;stroke-width:1.28428364;marker:none;visibility:visible;display:inline;overflow:visible;enable-background:accumulate"
       id="rect3872"
       width="73.401779"
       height="74.813354"
       x="158.67239"
       y="826.45496"
       rx="16.938873"
       ry="16.938873" />
    <rect
       ry="16.938873"
       rx="16.938873"
       y="705.638"
       x="255.32591"
       height="74.813354"
       width="73.401779"
       id="rect3878"
       style="color:#000000;fill:url(#linearGradient4394);fill-opacity:1;fill-rule:nonzero;stroke:#4e9a06;stroke-width:1.28428364;marker:none;visibility:visible;display:inline;overflow:visible;enable-background:accumulate" />
    <rect
       ry="16.938873"
       rx="16.938873"
       y="826.4549"
       x="255.32591"
       height="74.813354"
       width="73.401779"
       id="rect4404"
       style="color:#000000;fill:url(#linearGradient4406);fill-opacity:1;fill-rule:nonzero;stroke:#c4a000;stroke-width:1.28428364;marker:none;visibility:visible;display:inline;overflow:visible;enable-background:accumulate" />
    <rect
       style="color:#000000;fill:url(#linearGradient4410);fill-opacity:1;fill-rule:nonzero;stroke:#c4a000;stroke-width:1.28428364;marker:none;visibility:visible;display:inline;overflow:visible;enable-background:accumulate"
       id="rect4408"
       width="73.401779"
       height="74.813354"
       x="351.97943"
       y="826.4549"
       rx="16.938873"
       ry="16.938873" />
    <path
       style="color:#000000;fill:none;stroke:#000000;stroke-width:1.2081691px;stroke-linecap:butt;stroke-linejoin:miter;stroke-miterlimit:4;stroke-opacity:1;stroke-dasharray:none;stroke-dashoffset:0;marker:none;visibility:visible;display:inline;overflow:visible;enable-background:accumulate"
       d="m 193.66119,823.35477 0,-24.95332 202.62093,0 0,24.45425"
       id="path4412"
       inkscape:connector-curvature="0" />
    <path
       style="color:#000000;fill:none;stroke:#000000;stroke-width:1.2081691px;stroke-linecap:butt;stroke-linejoin:miter;stroke-miterlimit:4;stroke-opacity:1;stroke-dasharray:none;stroke-dashoffset:0;marker:none;visibility:visible;display:inline;overflow:visible;enable-background:accumulate"
       d="m 293.47446,822.8557 0,-39.42624"
       id="path4414"
       inkscape:connector-curvature="0" />
    <rect
       ry="16.938873"
       rx="16.938873"
       y="826.4549"
       x="569.44983"
       height="74.813354"
       width="73.401779"
       id="rect4416"
       style="color:#000000;fill:url(#linearGradient4418);fill-opacity:1;fill-rule:nonzero;stroke:#204a87;stroke-width:1.28428364;marker:none;visibility:visible;display:inline;overflow:visible;enable-background:accumulate" />
    <rect
       style="color:#000000;fill:url(#linearGradient4428);fill-opacity:1;fill-rule:nonzero;stroke:#2e3436;stroke-width:1.28428364;marker:none;visibility:visible;display:inline;overflow:visible;enable-background:accumulate"
       id="rect4426"
       width="73.401779"
       height="74.813354"
       x="690.26678"
       y="826.4549"
       rx="16.938873"
       ry="16.938873" />
    <rect
       ry="16.938873"
       rx="16.938873"
       y="705.638"
       x="690.26678"
       height="74.813354"
       width="73.401779"
       id="rect4436"
       style="color:#000000;fill:url(#linearGradient4438);fill-opacity:1;fill-rule:nonzero;stroke:#8f5902;stroke-width:1.28428364;marker:none;visibility:visible;display:inline;overflow:visible;enable-background:accumulate" />
    <rect
       style="color:#000000;fill:url(#linearGradient4442);fill-opacity:1;fill-rule:nonzero;stroke:#5c3566;stroke-width:1.28428364;marker:none;visibility:visible;display:inline;overflow:visible;enable-background:accumulate"
       id="rect4440"
       width="73.401779"
       height="74.813354"
       x="569.44983"
       y="705.638"
       rx="16.938873"
       ry="16.938873" />
    <rect
       ry="16.938873"
       rx="16.938873"
       y="947.27179"
       x="569.44983"
       height="74.813354"
       width="73.401779"
       id="rect4444"
       style="color:#000000;fill:url(#linearGradient4446);fill-opacity:1;fill-rule:nonzero;stroke:#a40000;stroke-width:1.28428364;marker:none;visibility:visible;display:inline;overflow:visible;enable-background:accumulate" />
    <rect
       style="color:#000000;fill:url(#linearGradient27928);fill-opacity:1;fill-rule:nonzero;stroke:#a40000;stroke-width:1.28428364;marker:none;visibility:visible;display:inline;overflow:visible;enable-background:accumulate"
       id="rect4448"
       width="73.401779"
       height="74.813354"
       x="569.44983"
       y="947.27179"
       rx="16.938873"
       ry="16.938873" />
    <rect
       ry="16.938873"
       rx="16.938873"
       y="947.27179"
       x="690.26678"
       height="74.813354"
       width="73.401779"
       id="rect4450"
       style="color:#000000;fill:url(#linearGradient4452);fill-opacity:1;fill-rule:nonzero;stroke:#a40000;stroke-width:1.28428364;marker:none;visibility:visible;display:inline;overflow:visible;enable-background:accumulate" />
    <path
       style="color:#000000;fill:none;stroke:#000000;stroke-width:1.2081691px;stroke-linecap:butt;stroke-linejoin:miter;stroke-miterlimit:4;stroke-opacity:1;stroke-dasharray:none;stroke-dashoffset:0;marker:none;visibility:visible;display:inline;overflow:visible;enable-background:accumulate"
       d="m 431.10594,860.3327 128.45312,0"
       id="path4454"
       inkscape:connector-curvature="0" />
    <path
       style="color:#000000;fill:none;stroke:#000000;stroke-width:1.2081691px;stroke-linecap:butt;stroke-linejoin:miter;stroke-miterlimit:4;stroke-opacity:1;stroke-dasharray:none;stroke-dashoffset:0;marker:none;visibility:visible;display:inline;overflow:visible;enable-background:accumulate"
       d="m 605.27087,822.51572 0,-37.42998"
       id="path4456"
       inkscape:connector-curvature="0" />
    <path
       style="color:#000000;fill:none;stroke:#000000;stroke-width:1.2081691px;stroke-linecap:butt;stroke-linejoin:miter;stroke-miterlimit:4;stroke-opacity:1;stroke-dasharray:none;stroke-dashoffset:0;marker:none;visibility:visible;display:inline;overflow:visible;enable-background:accumulate"
       d="m 645.19618,863.93822 40.92344,0"
       id="path4458"
       inkscape:connector-curvature="0" />
    <path
       style="color:#000000;fill:none;stroke:#000000;stroke-width:1.2081691px;stroke-linecap:butt;stroke-linejoin:miter;stroke-miterlimit:4;stroke-opacity:1;stroke-dasharray:none;stroke-dashoffset:0;marker:none;visibility:visible;display:inline;overflow:visible;enable-background:accumulate"
       d="m 606.76807,904.36261 0,38.42812"
       id="path4460"
       inkscape:connector-curvature="0" />
    <path
       style="color:#000000;fill:none;stroke:#000000;stroke-width:1.2081691px;stroke-linecap:butt;stroke-linejoin:miter;stroke-miterlimit:4;stroke-opacity:1;stroke-dasharray:none;stroke-dashoffset:0;marker:none;visibility:visible;display:inline;overflow:visible;enable-background:accumulate"
       d="m 642.20178,828.00545 48.9085,-48.90851"
       id="path4466"
       inkscape:connector-curvature="0" />
    <path
       style="color:#000000;fill:none;stroke:#000000;stroke-width:1.2081691px;stroke-linecap:butt;stroke-linejoin:miter;stroke-miterlimit:4;stroke-opacity:1;stroke-dasharray:none;stroke-dashoffset:0;marker:none;visibility:visible;display:inline;overflow:visible;enable-background:accumulate"
       d="m 642.70085,899.37191 48.65896,48.65901"
       id="path4468"
       inkscape:connector-curvature="0" />
    <g
       transform="matrix(7.0996188,0,0,7.0996188,-4187.6292,-4734.5729)"
       id="layer1-8"
       inkscape:label="Ebene 1"
       style="fill:#d3d7cf">
      <path
         style="font-size:medium;font-style:normal;font-variant:normal;font-weight:normal;font-stretch:normal;text-indent:0;text-align:start;text-decoration:none;line-height:normal;letter-spacing:normal;word-spacing:normal;text-transform:none;direction:ltr;block-progression:tb;writing-mode:lr-tb;text-anchor:start;baseline-shift:baseline;color:#000000;fill:#000000;fill-opacity:1;stroke:none;stroke-width:6.43383312;marker:none;visibility:visible;display:inline;overflow:visible;enable-background:accumulate;font-family:Sans;-inkscape-font-specification:Sans"
         d="m 647.74432,736.71205 c -0.58658,1.59155 -0.94368,3.2341 -0.34795,5.08839 -0.6935,1.11127 -1.72248,3.91704 -1.7523,5.33072 l -0.0497,2.3565 c -0.0443,2.10115 1.34253,4.03768 3.50608,5.31305 1.80023,0.85483 3.51884,1.2942 5.33709,1.49862 -0.60537,0.52284 -0.89949,0.33411 -1.47296,2.34723 -1.38528,0.42354 -3.1231,0.5987 -3.86808,-0.18539 -1.53677,-1.61745 -2.40058,-3.40524 -4.33374,-2.72472 -0.4912,0.17292 0.79433,0.8495 1.06124,1.14646 1.08876,1.21137 1.16026,1.96702 1.67796,2.72573 1.00481,1.4726 2.86736,2.19748 5.30544,1.63696 0,0 0.38214,2.11887 -0.0599,3.57632 -0.30596,1.0088 -1.10681,1.46806 -1.90077,1.86491 -1.76023,0.87983 -4.11901,-0.072 -5.83629,0.88901 -2.9831,1.6693 -4.37913,4.46154 -6.61923,7.83292 -0.4252,0.63993 -6.01728,9.05624 -7.51403,11.45525 -0.23447,0.37581 -0.90144,0.38432 -0.92727,0.94361 -0.0257,0.55557 1.8858,0.29091 2.36452,-0.34574 1.22483,-1.6289 2.75767,-4.48584 6.5685,-9.74573 1.84313,-2.54399 4.23072,-6.8465 6.24108,-8.14004 1.38627,-0.89198 3.25494,-0.54749 4.85237,-0.9544 2.68948,-0.68509 3.86749,-1.49364 4.50737,-2.98846 0.20073,-0.46893 0.3053,-1.49948 0.3053,-1.49948 0.14785,-2.95676 -0.23641,-4.51424 0.56186,-5.08586 0.22469,-0.16089 0.0525,3.27949 0.0525,6.33485 0,0 -0.2972,2.22942 -0.3728,2.58667 -1.29022,6.09525 -5.38116,13.56759 -7.94995,18.41902 -0.95642,1.8063 -2.3459,2.11525 -2.32189,2.6676 0.0169,0.38941 0.86505,0.55361 1.03516,0.54387 0.82371,-0.0471 1.40324,-0.22981 1.58419,-0.7421 0.41326,-0.41851 3.34493,-4.56942 6.14223,-10.91316 1.55224,-3.52018 3.33831,-8.95399 3.97375,-11.84805 0.10836,-0.4935 0.0213,-1.00929 0.0213,-1.51561 0,-3.05535 -0.0655,-5.47121 -0.0407,-5.77566 0.27962,0 0.34598,-0.002 0.50418,0.0127 -0.0248,3.38601 -0.1059,6.63695 0.2327,7.22931 0.19672,0.34413 0.11152,0.34663 0.61509,0.92504 1.07001,1.55998 4.51399,2.9427 8.43172,4.97907 1.24762,0.64849 3.61752,1.76026 4.41937,1.90367 0.0677,0.0487 1.48433,0.29226 1.62422,-0.23668 0.067,-0.25321 -0.39062,-0.37553 -0.61986,-0.4829 -0.69578,-0.32588 -0.83434,-0.30545 -1.22172,-0.43578 -1.59138,-0.53542 -3.0292,-1.53253 -5.55594,-2.83301 -3.42416,-1.76237 -3.68476,-1.65753 -5.49371,-3.66385 -0.5913,-0.65581 -0.43044,-1.89511 -0.38474,-3.14105 0.0659,-1.79634 -0.049,-3.93937 0.11418,-3.93937 0.0385,0.21746 0.57342,1.35407 0.73065,1.59533 1.87027,2.86994 5.60421,1.92732 6.72063,0.89313 1.99721,-1.85011 5.72868,-5.01466 9.13479,-4.68491 5.76544,0.55817 13.65392,10.74884 13.65392,10.74884 0.7181,0.94095 1.85783,0.91565 2.46612,0.65061 0.3366,-0.14666 0.30675,-0.44021 0.16105,-0.57655 -0.2234,-0.20905 -0.89237,-0.45584 -1.00233,-0.77336 -0.12067,-0.34843 -9.45714,-10.34159 -14.76502,-11.77323 -3.9444,-1.06388 -8.01805,3.36124 -10.29819,4.86534 -2.29342,1.51285 -3.46785,0.78461 -4.21165,-0.39884 -0.70976,-1.1293 -0.5189,-2.72225 -1.92838,-3.50615 l 0.90405,0 c 3.97948,0 7.56753,-2.67585 7.63719,-6.67498 l 0.0497,-2.85355 c 0.036,-2.06705 -0.77353,-3.81967 -2.15007,-5.13344 0.47947,-1.56112 0.2825,-3.04526 -0.29823,-4.73892 -2.48261,0.48885 -3.68563,1.06461 -4.86352,1.8144 -1.73556,-0.0176 -2.66354,-0.12206 -3.88419,-0.55556 -1.3782,-0.0234 -4.8017,0.72687 -5.35686,0.86421 -1.46078,-1.43754 -3.24083,-1.91724 -5.09561,-2.17278 z"
         id="path3162"
         inkscape:connector-curvature="0"
         sodipodi:nodetypes="ccsscccsssscsaassssssssssssssscsscccscscassssscssacsssssscsssccccccc" />
      <path
         style="color:#000000;fill:none;stroke:#000000;stroke-width:1px;stroke-linecap:butt;stroke-linejoin:miter;stroke-miterlimit:4;stroke-opacity:1;stroke-dasharray:none;stroke-dashoffset:0;marker:none;visibility:visible;display:inline;overflow:visible;enable-background:accumulate"
         d="m 285.3712,195.40771 c 0,0 -42.64503,0.29209 -47.61055,2.6288 -4.96552,2.33671 -4.96552,2.33671 -4.96552,2.33671"
         id="path28706"
         inkscape:connector-curvature="0"
         transform="matrix(0.17017379,0,0,0.17017379,597.27623,717.95387)" />
      <path
         style="color:#000000;fill:none;stroke:#000000;stroke-width:1px;stroke-linecap:butt;stroke-linejoin:miter;stroke-miterlimit:4;stroke-opacity:1;stroke-dasharray:none;stroke-dashoffset:0;marker:none;visibility:visible;display:inline;overflow:visible;enable-background:accumulate"
         d="m 237.46856,207.96755 c 0,0 22.49087,-5.5497 28.33266,-6.13388 5.84178,-0.58418 22.49087,-2.04462 22.49087,-2.04462"
         id="path28708"
         inkscape:connector-curvature="0"
         transform="matrix(0.17017379,0,0,0.17017379,597.27623,717.95387)" />
      <path
         style="color:#000000;fill:none;stroke:#000000;stroke-width:1px;stroke-linecap:butt;stroke-linejoin:miter;stroke-miterlimit:4;stroke-opacity:1;stroke-dasharray:none;stroke-dashoffset:0;marker:none;visibility:visible;display:inline;overflow:visible;enable-background:accumulate"
         d="m 421.48479,195.11562 c 0,0 25.32087,-0.27162 37.89858,0.94929 4.76753,0.46278 14.16633,2.40973 14.16633,2.40973"
         id="path28710"
         inkscape:connector-curvature="0"
         transform="matrix(0.17017379,0,0,0.17017379,597.27623,717.95387)"
         sodipodi:nodetypes="cac" />
      <path
         style="color:#000000;fill:none;stroke:#000000;stroke-width:1px;stroke-linecap:butt;stroke-linejoin:miter;stroke-miterlimit:4;stroke-opacity:1;stroke-dasharray:none;stroke-dashoffset:0;marker:none;visibility:visible;display:inline;overflow:visible;enable-background:accumulate"
         d="m 420.60852,200.37322 c 0,0 32.93306,2.2637 40.81947,4.30832 7.88641,2.04463 11.39148,2.92089 11.39148,2.92089"
         id="path28712"
         inkscape:connector-curvature="0"
         transform="matrix(0.17017379,0,0,0.17017379,597.27623,717.95387)"
         sodipodi:nodetypes="csc" />
      <path
         style="color:#000000;fill:#f4cab2;fill-opacity:1;fill-rule:nonzero;stroke:none;stroke-width:7;marker:none;visibility:visible;display:inline;overflow:visible;enable-background:accumulate"
         d="m 411.42428,159.61881 c 0.0535,6.4312 -2.32475,19.38692 -12.2246,26.05938 -9.41439,6.34526 -25.94696,6.57367 -41.68189,6.57367 -14.55421,0 -29.91111,-1.59086 -38.75903,-6.30271 -10.77676,-5.73904 -13.49516,-15.30921 -13.49516,-22.19957 0,-7.80945 1.28776,-20.68258 15.0346,-25.85946 8.34027,-3.14082 25.50019,-1.75661 37.63267,-0.57744 12.68963,1.23332 27.77309,-2.62364 36.40392,-0.0423 13.36469,3.99717 17.03128,15.34852 17.08949,22.34843 z"
         id="path28714"
         inkscape:connector-curvature="0"
         sodipodi:nodetypes="sssssssss"
         transform="matrix(0.17017379,0,0,0.17017379,596.78417,722.80421)" />
      <path
         transform="matrix(0.30352992,0,0,0.30352992,553.55885,692.31313)"
         d="m 333.35279,190.80609 c 0,5.13306 -2.86658,9.29422 -6.40269,9.29422 -3.5361,0 -6.40268,-4.16116 -6.40268,-9.29422 0,-5.13306 2.86658,-9.29422 6.40268,-9.29422 3.53611,0 6.40269,4.16116 6.40269,9.29422 z"
         sodipodi:ry="9.2942228"
         sodipodi:rx="6.4026871"
         sodipodi:cy="190.80609"
         sodipodi:cx="326.9501"
         id="path28719"
         style="color:#000000;fill:#ffffff;fill-opacity:1;fill-rule:nonzero;stroke:none;stroke-width:7;marker:none;visibility:visible;display:inline;overflow:visible;enable-background:accumulate"
         sodipodi:type="arc" />
      <path
         sodipodi:type="arc"
         style="color:#000000;fill:#ac5c51;fill-opacity:1;fill-rule:nonzero;stroke:none;stroke-width:7;marker:none;visibility:visible;display:inline;overflow:visible;enable-background:accumulate"
         id="path28717"
         sodipodi:cx="326.9501"
         sodipodi:cy="190.80609"
         sodipodi:rx="6.4026871"
         sodipodi:ry="9.2942228"
         d="m 333.35279,190.80609 c 0,5.13306 -2.86658,9.29422 -6.40269,9.29422 -3.5361,0 -6.40268,-4.16116 -6.40268,-9.29422 0,-5.13306 2.86658,-9.29422 6.40268,-9.29422 3.53611,0 6.40269,4.16116 6.40269,9.29422 z"
         transform="matrix(0.19290299,0,0,0.19290299,589.70073,713.41428)" />
      <path
         sodipodi:type="arc"
         style="color:#000000;fill:#ffffff;fill-opacity:1;fill-rule:nonzero;stroke:none;stroke-width:7;marker:none;visibility:visible;display:inline;overflow:visible;enable-background:accumulate"
         id="path28721"
         sodipodi:cx="326.9501"
         sodipodi:cy="190.80609"
         sodipodi:rx="6.4026871"
         sodipodi:ry="9.2942228"
         d="m 333.35279,190.80609 c 0,5.13306 -2.86658,9.29422 -6.40269,9.29422 -3.5361,0 -6.40268,-4.16116 -6.40268,-9.29422 0,-5.13306 2.86658,-9.29422 6.40268,-9.29422 3.53611,0 6.40269,4.16116 6.40269,9.29422 z"
         transform="matrix(0.30352992,0,0,0.30352992,563.64504,692.31313)" />
      <path
         transform="matrix(0.19290299,0,0,0.19290299,599.78692,713.41428)"
         d="m 333.35279,190.80609 c 0,5.13306 -2.86658,9.29422 -6.40269,9.29422 -3.5361,0 -6.40268,-4.16116 -6.40268,-9.29422 0,-5.13306 2.86658,-9.29422 6.40268,-9.29422 3.53611,0 6.40269,4.16116 6.40269,9.29422 z"
         sodipodi:ry="9.2942228"
         sodipodi:rx="6.4026871"
         sodipodi:cy="190.80609"
         sodipodi:cx="326.9501"
         id="path28723"
         style="color:#000000;fill:#ac5c51;fill-opacity:1;fill-rule:nonzero;stroke:none;stroke-width:7;marker:none;visibility:visible;display:inline;overflow:visible;enable-background:accumulate"
         sodipodi:type="arc" />
      <path
         sodipodi:type="arc"
         style="color:#000000;fill:#ac5c51;fill-opacity:1;fill-rule:nonzero;stroke:none;stroke-width:7.93495226;marker:none;visibility:visible;display:inline;overflow:visible;enable-background:accumulate"
         id="path28727"
         sodipodi:cx="350.215"
         sodipodi:cy="194.96957"
         sodipodi:rx="2.6288033"
         sodipodi:ry="2.6288033"
         d="m 352.8438,194.96957 c 0,1.45185 -1.17696,2.62881 -2.6288,2.62881 -1.45185,0 -2.62881,-1.17696 -2.62881,-2.62881 0,-1.45184 1.17696,-2.6288 2.62881,-2.6288 1.45184,0 2.6288,1.17696 2.6288,2.6288 z"
         transform="matrix(0.17017379,0,0,0.17017379,598.04667,719.4202)" />
      <path
         style="color:#000000;fill:#ac5c51;fill-opacity:1;fill-rule:nonzero;stroke:none;stroke-width:1.35032094;marker:none;visibility:visible;display:inline;overflow:visible;enable-background:accumulate"
         d="m 656.53082,753.70554 c 0.002,-0.0676 0.10179,-0.12134 0.16882,-0.11247 0.20119,0.0266 0.21986,0.3671 0.40144,0.45775 0.27004,0.13482 0.62113,0.17626 0.9029,0.0681 0.22493,-0.0864 0.37885,-0.36623 0.49924,-0.52268 0.0401,-0.0521 0.17247,-0.0612 0.19721,-3.4e-4 0.17797,0.43814 -0.54651,0.9596 -1.0186,0.98756 -0.48169,0.0285 -1.16642,-0.39563 -1.15101,-0.87792 z"
         id="path28729"
         inkscape:connector-curvature="0"
         sodipodi:nodetypes="aaaasaaa" />
    </g>
  </g>
</svg>
