<?xml version="1.0" encoding="UTF-8" standalone="no"?>
<!-- Created with Inkscape (http://www.inkscape.org/) -->

<svg
   xmlns:dc="http://purl.org/dc/elements/1.1/"
   xmlns:cc="http://creativecommons.org/ns#"
   xmlns:rdf="http://www.w3.org/1999/02/22-rdf-syntax-ns#"
   xmlns:svg="http://www.w3.org/2000/svg"
   xmlns="http://www.w3.org/2000/svg"
   xmlns:sodipodi="http://sodipodi.sourceforge.net/DTD/sodipodi-0.dtd"
   xmlns:inkscape="http://www.inkscape.org/namespaces/inkscape"
   width="1024"
   height="768"
   id="svg2"
   version="1.1"
   inkscape:version="0.48.1 r9760"
   sodipodi:docname="variables.svg">
  <defs
     id="defs4">
    <marker
       inkscape:stockid="Arrow2Lend"
       orient="auto"
       refY="0"
       refX="0"
       id="Arrow2Lend"
       style="overflow:visible">
      <path
         id="path3789"
         style="font-size:12px;fill-rule:evenodd;stroke-width:0.625;stroke-linejoin:round"
         d="M 8.7185878,4.0337352 -2.2072895,0.01601326 8.7185884,-4.0017078 c -1.7454984,2.3720609 -1.7354408,5.6174519 -6e-7,8.035443 z"
         transform="matrix(-1.1,0,0,-1.1,-1.1,0)"
         inkscape:connector-curvature="0" />
    </marker>
    <marker
       inkscape:stockid="Arrow1Lend"
       orient="auto"
       refY="0"
       refX="0"
       id="Arrow1Lend"
       style="overflow:visible">
      <path
         id="path3771"
         d="M 0,0 5,-5 -12.5,0 5,5 0,0 z"
         style="fill-rule:evenodd;stroke:#000000;stroke-width:1pt;marker-start:none"
         transform="matrix(-0.8,0,0,-0.8,-10,0)"
         inkscape:connector-curvature="0" />
    </marker>
  </defs>
  <sodipodi:namedview
     id="base"
     pagecolor="#ffffff"
     bordercolor="#666666"
     borderopacity="1.0"
     inkscape:pageopacity="1"
     inkscape:pageshadow="2"
     inkscape:zoom="0.64192708"
     inkscape:cx="512"
     inkscape:cy="384"
     inkscape:document-units="px"
     inkscape:current-layer="layer8"
     showgrid="false"
     units="px"
     showguides="true"
     inkscape:guide-bbox="true"
     inkscape:window-width="1366"
     inkscape:window-height="710"
     inkscape:window-x="0"
     inkscape:window-y="26"
     inkscape:window-maximized="1" />
  <metadata
     id="metadata7">
    <rdf:RDF>
      <cc:Work
         rdf:about="">
        <dc:format>image/svg+xml</dc:format>
        <dc:type
           rdf:resource="http://purl.org/dc/dcmitype/StillImage" />
        <dc:title />
      </cc:Work>
    </rdf:RDF>
  </metadata>
  <g
     inkscape:groupmode="layer"
     id="layer2"
     inkscape:label="commits"
     style="display:inline"
     transform="translate(0,590.83466)">
    <g
       style="display:inline"
       id="g4343"
       transform="matrix(2.5974447,0,0,2.5974447,57.423435,-2768.0477)">
      <path
         transform="matrix(0.52908462,0,0,0.52908462,-11.054705,971.9259)"
         d="m 76.411623,57.550526 c 0,11.930233 -9.671365,21.601598 -21.601599,21.601598 -11.930233,0 -21.601598,-9.671365 -21.601598,-21.601598 0,-11.930234 9.671365,-21.601599 21.601598,-21.601599 11.930234,0 21.601599,9.671365 21.601599,21.601599 z"
         sodipodi:ry="21.601599"
         sodipodi:rx="21.601599"
         sodipodi:cy="57.550526"
         sodipodi:cx="54.810024"
         id="path2987"
         style="fill:#d3d7cf;fill-rule:evenodd;stroke:#babdb6;stroke-width:1px;stroke-linecap:butt;stroke-linejoin:miter;stroke-opacity:1"
         sodipodi:type="arc" />
      <text
         sodipodi:linespacing="125%"
         id="text4217"
         y="1027.6525"
         x="12.603737"
         style="font-size:12.39072514px;font-style:normal;font-weight:normal;line-height:125%;letter-spacing:0px;word-spacing:0px;fill:#000000;fill-opacity:1;stroke:none;font-family:Sans"
         xml:space="preserve"><tspan
           y="1027.6525"
           x="12.603737"
           id="tspan4219"
           sodipodi:role="line">t<tspan
   style="font-size:9.9795475px;baseline-shift:sub"
   id="tspan3069">0</tspan></tspan></text>
    </g>
    <g
       style="display:inline"
       id="g4337"
       transform="matrix(2.5974447,0,0,2.5974447,260.02413,-2768.0477)">
      <path
         sodipodi:type="arc"
         style="fill:#d3d7cf;fill-rule:evenodd;stroke:#babdb6;stroke-width:1px;stroke-linecap:butt;stroke-linejoin:miter;stroke-opacity:1"
         id="path2989"
         sodipodi:cx="54.810024"
         sodipodi:cy="57.550526"
         sodipodi:rx="21.601599"
         sodipodi:ry="21.601599"
         d="m 76.411623,57.550526 c 0,11.930233 -9.671365,21.601598 -21.601599,21.601598 -11.930233,0 -21.601598,-9.671365 -21.601598,-21.601598 0,-11.930234 9.671365,-21.601599 21.601598,-21.601599 11.930234,0 21.601599,9.671365 21.601599,21.601599 z"
         transform="matrix(0.52908462,0,0,0.52908462,40.795594,971.9259)" />
      <text
         xml:space="preserve"
         style="font-size:21.16338348px;font-style:normal;font-weight:normal;line-height:125%;letter-spacing:0px;word-spacing:0px;fill:#000000;fill-opacity:1;stroke:none;font-family:Sans"
         x="64.196304"
         y="1028.5818"
         id="text4223"
         sodipodi:linespacing="125%"><tspan
           sodipodi:role="line"
           id="tspan4225"
           x="64.196304"
           y="1028.5818"
           style="font-size:12.39072514px">t<tspan
   style="font-size:9.9795475px;baseline-shift:sub"
   id="tspan3071">1</tspan></tspan></text>
    </g>
    <g
       style="display:inline"
       id="g4331"
       transform="matrix(2.5974447,0,0,2.5974447,254.82927,-2768.0477)">
      <path
         transform="matrix(0.52908462,0,0,0.52908462,92.645892,971.9259)"
         d="m 76.411623,57.550526 c 0,11.930233 -9.671365,21.601598 -21.601599,21.601598 -11.930233,0 -21.601598,-9.671365 -21.601598,-21.601598 0,-11.930234 9.671365,-21.601599 21.601598,-21.601599 11.930234,0 21.601599,9.671365 21.601599,21.601599 z"
         sodipodi:ry="21.601599"
         sodipodi:rx="21.601599"
         sodipodi:cy="57.550526"
         sodipodi:cx="54.810024"
         id="path2991"
         style="fill:#555753;fill-rule:evenodd;stroke:#2e3436;stroke-width:1px;stroke-linecap:butt;stroke-linejoin:miter;stroke-opacity:1"
         sodipodi:type="arc" />
      <text
         sodipodi:linespacing="125%"
         id="text4231"
         y="1029.5111"
         x="115.73682"
         style="font-size:21.16338348px;font-style:normal;font-weight:normal;line-height:125%;letter-spacing:0px;word-spacing:0px;fill:#000000;fill-opacity:1;stroke:none;font-family:Sans"
         xml:space="preserve"><tspan
           y="1029.5111"
           x="115.73682"
           id="tspan4233"
           sodipodi:role="line"
           style="font-size:12.39072514px">t<tspan
   style="font-size:9.9795475px;baseline-shift:sub"
   id="tspan3073">2</tspan></tspan></text>
    </g>
    <g
       style="display:inline"
       id="g4325"
       transform="matrix(2.5974447,0,0,2.5974447,5.4746006,-2768.0477)">
      <path
         sodipodi:type="arc"
         style="fill:#d3d7cf;fill-rule:evenodd;stroke:#babdb6;stroke-width:1px;stroke-linecap:butt;stroke-linejoin:miter;stroke-opacity:1"
         id="path2993"
         sodipodi:cx="54.810024"
         sodipodi:cy="57.550526"
         sodipodi:rx="21.601599"
         sodipodi:ry="21.601599"
         d="m 76.411623,57.550526 c 0,11.930233 -9.671365,21.601598 -21.601599,21.601598 -11.930233,0 -21.601598,-9.671365 -21.601598,-21.601598 0,-11.930234 9.671365,-21.601599 21.601598,-21.601599 11.930234,0 21.601599,9.671365 21.601599,21.601599 z"
         transform="matrix(0.52908462,0,0,0.52908462,278.49618,971.9259)" />
      <text
         xml:space="preserve"
         style="font-size:21.16338348px;font-style:normal;font-weight:normal;line-height:125%;letter-spacing:0px;word-spacing:0px;fill:#000000;fill-opacity:1;stroke:none;font-family:Sans"
         x="301.71597"
         y="1029.2013"
         id="text4237"
         sodipodi:linespacing="125%"><tspan
           sodipodi:role="line"
           id="tspan4239"
           x="301.71597"
           y="1029.2013"
           style="font-size:12.39072514px">t<tspan
   style="font-size:9.9795475px;baseline-shift:sub"
   id="tspan3075">3</tspan></tspan></text>
    </g>
    <path
       style="fill:none;stroke:#000000;stroke-width:2.59744477px;stroke-linecap:butt;stroke-linejoin:miter;stroke-opacity:1;marker-end:url(#Arrow2Lend);display:inline"
       d="m 137.34491,-165.18449 263.28305,0"
       id="path4353"
       inkscape:connector-curvature="0"
       sodipodi:nodetypes="cc" />
    <path
       sodipodi:nodetypes="cc"
       inkscape:connector-curvature="0"
       id="path4905"
       d="m 480.10426,-165.18449 54.99232,0"
       style="fill:none;stroke:#000000;stroke-width:2.59744477px;stroke-linecap:butt;stroke-linejoin:miter;stroke-opacity:1;marker-end:url(#Arrow2Lend);display:inline" />
    <path
       style="fill:none;stroke:#000000;stroke-width:2.59744477px;stroke-linecap:butt;stroke-linejoin:miter;stroke-opacity:1;marker-end:url(#Arrow2Lend);display:inline"
       d="m 604.88495,-165.18449 163.98165,0"
       id="path4907"
       inkscape:connector-curvature="0"
       sodipodi:nodetypes="cc" />
  </g>
  <g
     inkscape:groupmode="layer"
     id="layer3"
     inkscape:label="arrow"
     style="display:inline">
    <g
       id="g4040"
       style="fill:#cc0000;display:inline"
       transform="translate(-12,604.83466)">
      <path
         style="font-size:medium;font-style:normal;font-variant:normal;font-weight:normal;font-stretch:normal;text-indent:0;text-align:start;text-decoration:none;line-height:normal;letter-spacing:normal;word-spacing:normal;text-transform:none;direction:ltr;block-progression:tb;writing-mode:lr-tb;text-anchor:start;baseline-shift:baseline;color:#000000;fill:#cc0000;fill-opacity:1;stroke:none;stroke-width:3;marker:none;visibility:visible;display:inline;overflow:visible;enable-background:accumulate;font-family:Sans;-inkscape-font-specification:Sans"
         d="m 792.375,-153.17841 c 0,0 -12.09044,15.69459 -29.8125,31 -17.72206,15.30541 -41.04087,30.03949 -63.03125,28.46875 -22.31855,-1.59418 -38.61051,3.90285 -50.34375,13.125 -11.73324,9.22215 -18.86278,22.07516 -23.15625,35.03125 -8.58693,25.91218 -5.96875,52.46875 -5.96875,52.46875 l 2.96875,-0.28125 c 0,0 -2.49293,-26.093 5.84375,-51.25 4.16834,-12.5785 11.02507,-24.87607 22.15625,-33.625 11.13118,-8.74893 26.58286,-14.05212 48.3125,-12.5 23.4486,1.6749 47.2075,-13.62806 65.1875,-29.15625 17.98,-15.52819 30.21875,-31.46875 30.21875,-31.46875 l -2.375,-1.8125 z"
         id="path3074"
         inkscape:connector-curvature="0" />
      <path
         inkscape:connector-curvature="0"
         d="m 763.45431,-134.96286 32.49236,-20.49453 -11.47438,36.66221 c -2.69248,-9.33832 -11.20155,-15.84189 -21.01798,-16.16768 z"
         style="font-size:12px;fill:#cc0000;fill-rule:evenodd;stroke-width:0.625;stroke-linejoin:round"
         id="path4046" />
    </g>
  </g>
  <g
     inkscape:groupmode="layer"
     id="layer4"
     inkscape:label="n"
     style="display:inline"
     transform="translate(0,590.83466)">
    <g
       style="display:inline"
       id="g5124"
       transform="matrix(2.5974447,0,0,2.5974447,417.77778,-2738.0807)">
      <rect
         y="1028.0852"
         x="126.12451"
         height="21.705112"
         width="45.122852"
         id="rect5126"
         style="fill:#eeeeec;fill-opacity:1;stroke:#000000;stroke-width:0.5;stroke-miterlimit:4;stroke-opacity:1;stroke-dasharray:none" />
      <text
         xml:space="preserve"
         style="font-size:17.01721191px;font-style:normal;font-weight:normal;line-height:125%;letter-spacing:0px;word-spacing:0px;fill:#000000;fill-opacity:1;stroke:none;font-family:Sans"
         x="132.15164"
         y="1044.0525"
         id="text5128"
         sodipodi:linespacing="125%"><tspan
           sodipodi:role="line"
           id="tspan5130"
           x="132.15164"
           y="1044.0525"
           style="font-size:12.39072514px">n = 2</tspan></text>
    </g>
    <g
       transform="matrix(2.5974447,0,0,2.5974447,57.77778,-2738.0807)"
       id="g3098"
       style="display:inline">
      <rect
         style="fill:#eeeeec;fill-opacity:1;stroke:#000000;stroke-width:0.5;stroke-miterlimit:4;stroke-opacity:1;stroke-dasharray:none"
         id="rect3100"
         width="45.122852"
         height="21.705112"
         x="126.12451"
         y="1028.0852" />
      <text
         sodipodi:linespacing="125%"
         id="text3102"
         y="1044.0525"
         x="132.15164"
         style="font-size:17.01721191px;font-style:normal;font-weight:normal;line-height:125%;letter-spacing:0px;word-spacing:0px;fill:#000000;fill-opacity:1;stroke:none;font-family:Sans"
         xml:space="preserve"><tspan
           style="font-size:12.39072514px"
           y="1044.0525"
           x="132.15164"
           id="tspan3104"
           sodipodi:role="line">n = 1</tspan></text>
    </g>
    <g
       style="display:inline"
       id="g3106"
       transform="matrix(2.5974447,0,0,2.5974447,-282.22222,-2738.0807)">
      <rect
         y="1028.0852"
         x="126.12451"
         height="21.705112"
         width="45.122852"
         id="rect3108"
         style="fill:#eeeeec;fill-opacity:1;stroke:#000000;stroke-width:0.5;stroke-miterlimit:4;stroke-opacity:1;stroke-dasharray:none" />
      <text
         xml:space="preserve"
         style="font-size:17.01721191px;font-style:normal;font-weight:normal;line-height:125%;letter-spacing:0px;word-spacing:0px;fill:#000000;fill-opacity:1;stroke:none;font-family:Sans"
         x="132.15164"
         y="1044.0525"
         id="text3110"
         sodipodi:linespacing="125%"><tspan
           sodipodi:role="line"
           id="tspan3112"
           x="132.15164"
           y="1044.0525"
           style="font-size:12.39072514px">n = 0</tspan></text>
    </g>
  </g>
  <g
     inkscape:groupmode="layer"
     id="layer5"
     inkscape:label="SC"
     style="display:inline"
     transform="translate(0,590.83466)">
    <g
       id="g3133"
       transform="matrix(1.327441,0.35568676,-0.35568676,1.327441,1151.5611,-1448.5668)">
      <path
         sodipodi:nodetypes="cscc"
         inkscape:connector-curvature="0"
         id="path3103"
         d="m 32.3493,929.65504 c 0,0 4.409344,0.0824 2.142858,6.75824 -0.983566,2.89705 -7.170335,3.7088 -7.170335,3.7088 l 0,0"
         style="fill:none;stroke:#000000;stroke-width:1px;stroke-linecap:butt;stroke-linejoin:miter;stroke-opacity:1" />
      <path
         id="path3105"
         d="m 36.965623,908.30105 -13.983108,18.71804 9.203125,15.94028 23.201858,-2.7507 48.849242,-28.20313 -18.421872,-31.90762 -48.849245,28.20313 z m -4.460033,19.46249 c 1.813308,-1.04691 4.133995,-0.40221 5.180909,1.4111 1.046914,1.81331 0.429274,4.11837 -1.384034,5.16528 -1.813308,1.04692 -4.11837,0.42928 -5.165284,-1.38403 -1.046914,-1.81331 -0.444899,-4.14543 1.368409,-5.19235 z"
         style="fill:#eeeeec;stroke:#000000;stroke-width:0.5;stroke-miterlimit:4;stroke-opacity:1"
         inkscape:connector-curvature="0" />
      <text
         xml:space="preserve"
         style="font-size:93.67669678px;font-style:normal;font-weight:normal;line-height:125%;letter-spacing:0px;word-spacing:0px;fill:#000000;fill-opacity:1;stroke:none;font-family:Sans"
         x="-418.26331"
         y="832.07709"
         id="text3107"
         sodipodi:linespacing="125%"
         transform="matrix(0.8660254,-0.5,0.5,0.8660254,0,0)"><tspan
           sodipodi:role="line"
           id="tspan3109"
           x="-418.26331"
           y="832.07709"
           style="font-size:23.41917419px">SC<tspan
   style="font-size:15.22267818px;baseline-shift:sub"
   id="tspan3111">3</tspan></tspan></text>
      <path
         sodipodi:nodetypes="csccc"
         inkscape:connector-curvature="0"
         id="path3113"
         d="m 11.716958,958.22218 c 0,0 6.352334,-4.20999 11.548831,-8.01679 9.430484,-6.90851 4.258839,-9.76796 3.871635,-10.03406 -2.135396,-1.28503 -2.475484,-3.23447 -1.793624,-5.15915 2.433902,-6.5594 7.046708,-5.35714 7.046708,-5.35714"
         style="fill:none;stroke:#000000;stroke-width:1px;stroke-linecap:butt;stroke-linejoin:miter;stroke-opacity:1" />
    </g>
  </g>
  <g
     inkscape:groupmode="layer"
     id="layer6"
     inkscape:label="SC anterior"
     style="display:inline"
     transform="translate(0,590.83466)">
    <g
       style="display:inline"
       transform="matrix(1.327441,0.35568676,-0.35568676,1.327441,913.39784,-1448.5668)"
       id="g4996">
      <path
         style="fill:none;stroke:#000000;stroke-width:1px;stroke-linecap:butt;stroke-linejoin:miter;stroke-opacity:1"
         d="m 32.3493,929.65504 c 0,0 4.409344,0.0824 2.142858,6.75824 -0.983566,2.89705 -7.170335,3.7088 -7.170335,3.7088 l 0,0"
         id="path4998"
         inkscape:connector-curvature="0"
         sodipodi:nodetypes="cscc" />
      <path
         inkscape:connector-curvature="0"
         style="fill:#eeeeec;stroke:#000000;stroke-width:0.5;stroke-miterlimit:4;stroke-opacity:1"
         d="m 36.965623,908.30105 -13.983108,18.71804 9.203125,15.94028 23.201858,-2.7507 48.849242,-28.20313 -18.421872,-31.90762 -48.849245,28.20313 z m -4.460033,19.46249 c 1.813308,-1.04691 4.133995,-0.40221 5.180909,1.4111 1.046914,1.81331 0.429274,4.11837 -1.384034,5.16528 -1.813308,1.04692 -4.11837,0.42928 -5.165284,-1.38403 -1.046914,-1.81331 -0.444899,-4.14543 1.368409,-5.19235 z"
         id="path5002" />
      <text
         transform="matrix(0.8660254,-0.5,0.5,0.8660254,0,0)"
         sodipodi:linespacing="125%"
         id="text3091"
         y="832.07709"
         x="-418.26331"
         style="font-size:93.67669678px;font-style:normal;font-weight:normal;line-height:125%;letter-spacing:0px;word-spacing:0px;fill:#000000;fill-opacity:1;stroke:none;font-family:Sans"
         xml:space="preserve"><tspan
           style="font-size:23.41917419px"
           y="832.07709"
           x="-418.26331"
           id="tspan3093"
           sodipodi:role="line">SC<tspan
   id="tspan3095"
   style="font-size:15.22267818px;baseline-shift:sub">2</tspan></tspan></text>
      <path
         style="fill:none;stroke:#000000;stroke-width:1px;stroke-linecap:butt;stroke-linejoin:miter;stroke-opacity:1"
         d="m 11.716958,958.22218 c 0,0 6.352334,-4.20999 11.548831,-8.01679 9.430484,-6.90851 4.258839,-9.76796 3.871635,-10.03406 -2.135396,-1.28503 -2.475484,-3.23447 -1.793624,-5.15915 2.433902,-6.5594 7.046708,-5.35714 7.046708,-5.35714"
         id="path5010"
         inkscape:connector-curvature="0"
         sodipodi:nodetypes="csccc" />
    </g>
  </g>
  <g
     inkscape:label="DeltaSC"
     inkscape:groupmode="layer"
     id="layer1"
     transform="translate(0,-284.3609)"
     style="display:inline">
    <text
       xml:space="preserve"
       style="font-size:103.89779663px;font-style:normal;font-weight:normal;line-height:125%;letter-spacing:0px;word-spacing:0px;fill:#000000;fill-opacity:1;stroke:none;font-family:Sans"
       x="285.95013"
       y="561.47003"
       id="text5032"
       sodipodi:linespacing="125%"><tspan
         sodipodi:role="line"
         id="tspan5034"
         x="285.95013"
         y="561.47003" /></text>
    <path
       sodipodi:nodetypes="csscscc"
       inkscape:connector-curvature="0"
       id="path5069"
       d="m 566.3568,617.9658 c 0,-14.83477 -1.43915,-30.27477 26.0661,-30.27477 59.29376,0 38.03856,0 53.81099,0 31.54479,0 31.09858,-15.48676 42.43316,-35.11875 12.41317,21.50009 8.30665,35.11875 41.8029,35.11875 77.69748,0 19.37304,0 24.84146,0 49.74313,0 48.39995,7.0965 48.39995,30.6127"
       style="fill:none;stroke:#000000;stroke-width:2.59744477px;stroke-linecap:butt;stroke-linejoin:miter;stroke-opacity:1" />
    <g
       transform="matrix(2.5974447,0,0,2.5974447,275.60879,-2204.5456)"
       id="g5071" />
    <g
       transform="matrix(2.5974447,0,0,2.5974447,256.26002,-2191.9273)"
       id="g5083">
      <rect
         style="fill:#eeeeec;fill-opacity:1;stroke:#000000;stroke-width:0.5;stroke-miterlimit:4;stroke-opacity:1;stroke-dasharray:none"
         id="rect5085"
         width="135.91135"
         height="26.659912"
         x="126.74404"
         y="1025.9167" />
      <text
         sodipodi:linespacing="125%"
         id="text5087"
         y="1044.0525"
         x="132.15164"
         style="font-size:17.01721191px;font-style:normal;font-weight:normal;line-height:125%;letter-spacing:0px;word-spacing:0px;fill:#000000;fill-opacity:1;stroke:none;font-family:Sans"
         xml:space="preserve"><tspan
           y="1044.0525"
           x="132.15164"
           id="tspan5089"
           sodipodi:role="line"
           style="font-size:12.39072514px">𝚫SC = SC<tspan
   style="font-size:80.54046631%;baseline-shift:sub"
   id="tspan3117">3</tspan> - SC<tspan
   style="font-size:80.54046631%;baseline-shift:sub"
   id="tspan3119">2</tspan></tspan></text>
    </g>
  </g>
  <g
     inkscape:groupmode="layer"
     id="layer8"
     inkscape:label="outras"
     style="display:inline"
     transform="translate(0,590.83466)">
    <g
       style="display:inline"
       transform="matrix(1.327441,-0.35568672,0.35568672,1.327441,467.95195,-1442.446)"
       id="g3141">
      <path
         style="fill:none;stroke:#000000;stroke-width:1px;stroke-linecap:butt;stroke-linejoin:miter;stroke-opacity:1"
         d="m 32.3493,929.65504 c 0,0 4.409344,0.0824 2.142858,6.75824 -0.983566,2.89705 -7.170335,3.7088 -7.170335,3.7088 l 0,0"
         id="path3143"
         inkscape:connector-curvature="0"
         sodipodi:nodetypes="cscc" />
      <path
         sodipodi:nodetypes="cccccccsssss"
         inkscape:connector-curvature="0"
         style="fill:#eeeeec;stroke:#000000;stroke-width:0.5;stroke-miterlimit:4;stroke-opacity:1"
         d="m 36.965623,908.30105 -13.983108,18.71804 9.203125,15.94028 23.201858,-2.7507 58.032552,-33.63059 -18.421866,-31.90762 z m -4.460033,19.46249 c 1.813308,-1.04691 4.133995,-0.40221 5.180909,1.4111 1.046914,1.81331 0.429274,4.11837 -1.384034,5.16528 -1.813308,1.04692 -4.11837,0.42928 -5.165284,-1.38403 -1.046914,-1.81331 -0.444899,-4.14543 1.368409,-5.19235 z"
         id="path3145" />
      <text
         transform="matrix(0.8660254,-0.5,0.5,0.8660254,0,0)"
         sodipodi:linespacing="125%"
         id="text3147"
         y="832.07709"
         x="-418.26331"
         style="font-size:93.67669678px;font-style:normal;font-weight:normal;line-height:125%;letter-spacing:0px;word-spacing:0px;fill:#000000;fill-opacity:1;stroke:none;font-family:Sans"
         xml:space="preserve"><tspan
           style="font-size:23.41917419px"
           y="832.07709"
           x="-418.26331"
           id="tspan3149"
           sodipodi:role="line">LOC<tspan
   id="tspan3151"
   style="font-size:15.22267818px;baseline-shift:sub">3</tspan></tspan></text>
      <path
         style="fill:none;stroke:#000000;stroke-width:1px;stroke-linecap:butt;stroke-linejoin:miter;stroke-opacity:1"
         d="m 11.716958,958.22218 c 0,0 6.352334,-4.20999 11.548831,-8.01679 9.430484,-6.90851 4.258839,-9.76796 3.871635,-10.03406 -2.135396,-1.28503 -2.475484,-3.23447 -1.793624,-5.15915 2.433902,-6.5594 7.046708,-5.35714 7.046708,-5.35714"
         id="path3153"
         inkscape:connector-curvature="0"
         sodipodi:nodetypes="csccc" />
    </g>
    <g
       style="display:inline"
       transform="matrix(1.0724608,0.85932565,-0.85932565,1.0724608,1637.365,-1205.2762)"
       inkscape:transform-center-y="-1.3042163"
       inkscape:transform-center-x="-74.034302"
       id="g3155">
      <path
         style="fill:none;stroke:#000000;stroke-width:1px;stroke-linecap:butt;stroke-linejoin:miter;stroke-opacity:1"
         d="m 32.3493,929.65504 c 0,0 4.409344,0.0824 2.142858,6.75824 -0.983566,2.89705 -7.170335,3.7088 -7.170335,3.7088 l 0,0"
         id="path3157"
         inkscape:connector-curvature="0"
         sodipodi:nodetypes="cscc" />
      <path
         inkscape:connector-curvature="0"
         style="fill:#eeeeec;stroke:#000000;stroke-width:0.5;stroke-miterlimit:4;stroke-opacity:1"
         d="m 36.965623,908.30105 -13.983108,18.71804 9.203125,15.94028 23.201858,-2.7507 48.849242,-28.20313 -18.421872,-31.90762 -48.849245,28.20313 z m -4.460033,19.46249 c 1.813308,-1.04691 4.133995,-0.40221 5.180909,1.4111 1.046914,1.81331 0.429274,4.11837 -1.384034,5.16528 -1.813308,1.04692 -4.11837,0.42928 -5.165284,-1.38403 -1.046914,-1.81331 -0.444899,-4.14543 1.368409,-5.19235 z"
         id="path3159" />
      <text
         transform="matrix(0.8660254,-0.5,0.5,0.8660254,0,0)"
         sodipodi:linespacing="125%"
         id="text3161"
         y="832.07709"
         x="-418.26331"
         style="font-size:93.67669678px;font-style:normal;font-weight:normal;line-height:125%;letter-spacing:0px;word-spacing:0px;fill:#000000;fill-opacity:1;stroke:none;font-family:Sans"
         xml:space="preserve"><tspan
           style="font-size:23.41917419px"
           y="832.07709"
           x="-418.26331"
           id="tspan3163"
           sodipodi:role="line" /></text>
      <path
         style="fill:none;stroke:#000000;stroke-width:1px;stroke-linecap:butt;stroke-linejoin:miter;stroke-opacity:1"
         d="m 11.716958,958.22218 c 0,0 6.352334,-4.20999 11.548831,-8.01679 9.430484,-6.90851 4.258839,-9.76796 3.871635,-10.03406 -2.135396,-1.28503 -2.475484,-3.23447 -1.793624,-5.15915 2.433902,-6.5594 7.046708,-5.35714 7.046708,-5.35714"
         id="path3167"
         inkscape:connector-curvature="0"
         sodipodi:nodetypes="csccc" />
      <text
         xml:space="preserve"
         style="font-size:93.67669678px;font-style:normal;font-weight:normal;line-height:125%;letter-spacing:0px;word-spacing:0px;fill:#000000;fill-opacity:1;stroke:none;display:inline;font-family:Sans"
         x="-410.61502"
         y="835.69934"
         id="text3107-9"
         sodipodi:linespacing="125%"
         transform="matrix(0.87085619,-0.4915379,0.4915379,0.87085619,0,0)"><tspan
           sodipodi:role="line"
           id="tspan3109-7"
           x="-410.61502"
           y="835.69934"
           style="font-size:23.41917419px">CF<tspan
   style="font-size:15.22267818px;baseline-shift:sub"
   id="tspan3111-7">3</tspan></tspan></text>
    </g>
  </g>
  <g
     inkscape:groupmode="layer"
     id="layer7"
     inkscape:label="DeltaLOC"
     style="display:inline">
    <g
       style="display:inline"
       id="g4575"
       transform="matrix(2.5974447,0,0,2.5974447,256.26002,-2556.2882)">
      <rect
         y="1025.9167"
         x="126.74404"
         height="26.659912"
         width="136.03104"
         id="rect4577"
         style="fill:#eeeeec;fill-opacity:1;stroke:#000000;stroke-width:0.5;stroke-miterlimit:4;stroke-opacity:1;stroke-dasharray:none" />
      <text
         xml:space="preserve"
         style="font-size:17.01721191px;font-style:normal;font-weight:normal;line-height:125%;letter-spacing:0px;word-spacing:0px;fill:#000000;fill-opacity:1;stroke:none;font-family:Sans"
         x="132.15164"
         y="1044.0525"
         id="text4579"
         sodipodi:linespacing="125%"><tspan
           style="font-size:12.39072514px"
           sodipodi:role="line"
           id="tspan4581"
           x="132.15164"
           y="1044.0525">𝚫LOC = LOC<tspan
   id="tspan4583"
   style="font-size:80.54046631%;baseline-shift:sub">3</tspan> - LOC<tspan
   id="tspan4585"
   style="font-size:80.54046631%;baseline-shift:sub">2</tspan></tspan></text>
    </g>
  </g>
</svg>
