<?xml version='1.0' encoding='UTF-8' standalone='no'?>
<!-- Created with Inkscape (http://www.inkscape.org/) -->

<svg xmlns:cc='http://creativecommons.org/ns#' xmlns:dc='http://purl.org/dc/elements/1.1/' sodipodi:docname='variables.svg' height='768' id='svg2' xmlns:inkscape='http://www.inkscape.org/namespaces/inkscape' xmlns:rdf='http://www.w3.org/1999/02/22-rdf-syntax-ns#' xmlns:sodipodi='http://sodipodi.sourceforge.net/DTD/sodipodi-0.dtd' xmlns:svg='http://www.w3.org/2000/svg' inkscape:version='0.48.1 r9760' version='1.1' width='1024' xmlns='http://www.w3.org/2000/svg'>
  <defs id='defs4'>
    <marker id='Arrow2Lend' orient='auto' refX='0' refY='0' inkscape:stockid='Arrow2Lend' style='overflow:visible'>
      <path inkscape:connector-curvature='0' d='M 8.7185878,4.0337352 -2.2072895,0.01601326 8.7185884,-4.0017078 c -1.7454984,2.3720609 -1.7354408,5.6174519 -6e-7,8.035443 z' id='path3789' style='font-size:12px;fill-rule:evenodd;stroke-width:0.625;stroke-linejoin:round' transform='matrix(-1.1,0,0,-1.1,-1.1,0)'/>
    </marker>
    <marker id='Arrow1Lend' orient='auto' refX='0' refY='0' inkscape:stockid='Arrow1Lend' style='overflow:visible'>
      <path inkscape:connector-curvature='0' d='M 0,0 5,-5 -12.5,0 5,5 0,0 z' id='path3771' style='fill-rule:evenodd;stroke:#000000;stroke-width:1pt;marker-start:none' transform='matrix(-0.8,0,0,-0.8,-10,0)'/>
    </marker>
  </defs>
  <sodipodi:namedview bordercolor='#666666' borderopacity='1.0' inkscape:current-layer='layer8' inkscape:cx='512' inkscape:cy='384' inkscape:document-units='px' inkscape:guide-bbox='true' id='base' pagecolor='#ffffff' inkscape:pageopacity='1' inkscape:pageshadow='2' showgrid='false' showguides='true' units='px' inkscape:window-height='710' inkscape:window-maximized='1' inkscape:window-width='1366' inkscape:window-x='0' inkscape:window-y='26' inkscape:zoom='0.64192708'/>
  <metadata id='metadata7'>
    <rdf:RDF>
      <cc:Work rdf:about=''>
        <dc:format>image/svg+xml</dc:format>
        <dc:type rdf:resource='http://purl.org/dc/dcmitype/StillImage'/>
        <dc:title/>
      </cc:Work>
    </rdf:RDF>
  </metadata>
  <g inkscape:groupmode='layer' id='layer2' inkscape:label='commits' style='display:inline' transform='translate(0,590.83466)'>
    <g id='g4343' style='display:inline' transform='matrix(2.5974447,0,0,2.5974447,57.423435,-2768.0477)'>
      <path sodipodi:cx='54.810024' sodipodi:cy='57.550526' d='m 76.411623,57.550526 c 0,11.930233 -9.671365,21.601598 -21.601599,21.601598 -11.930233,0 -21.601598,-9.671365 -21.601598,-21.601598 0,-11.930234 9.671365,-21.601599 21.601598,-21.601599 11.930234,0 21.601599,9.671365 21.601599,21.601599 z' id='path2987' sodipodi:rx='21.601599' sodipodi:ry='21.601599' style='fill:#d3d7cf;fill-rule:evenodd;stroke:#babdb6;stroke-width:1px;stroke-linecap:butt;stroke-linejoin:miter;stroke-opacity:1' transform='matrix(0.52908462,0,0,0.52908462,-11.054705,971.9259)' sodipodi:type='arc'/>
      <text id='text4217' sodipodi:linespacing='125%' xml:space='preserve' style='font-size:12.39072514px;font-style:normal;font-weight:normal;line-height:125%;letter-spacing:0px;word-spacing:0px;fill:#000000;fill-opacity:1;stroke:none;font-family:Sans' x='12.603737' y='1027.6525'><tspan id='tspan4219' sodipodi:role='line' x='12.603737' y='1027.6525'>t<tspan id='tspan3069' style='font-size:9.9795475px;baseline-shift:sub'>0</tspan></tspan></text>
    </g>
    <g id='g4337' style='display:inline' transform='matrix(2.5974447,0,0,2.5974447,260.02413,-2768.0477)'>
      <path sodipodi:cx='54.810024' sodipodi:cy='57.550526' d='m 76.411623,57.550526 c 0,11.930233 -9.671365,21.601598 -21.601599,21.601598 -11.930233,0 -21.601598,-9.671365 -21.601598,-21.601598 0,-11.930234 9.671365,-21.601599 21.601598,-21.601599 11.930234,0 21.601599,9.671365 21.601599,21.601599 z' id='path2989' sodipodi:rx='21.601599' sodipodi:ry='21.601599' style='fill:#d3d7cf;fill-rule:evenodd;stroke:#babdb6;stroke-width:1px;stroke-linecap:butt;stroke-linejoin:miter;stroke-opacity:1' transform='matrix(0.52908462,0,0,0.52908462,40.795594,971.9259)' sodipodi:type='arc'/>
      <text id='text4223' sodipodi:linespacing='125%' xml:space='preserve' style='font-size:21.16338348px;font-style:normal;font-weight:normal;line-height:125%;letter-spacing:0px;word-spacing:0px;fill:#000000;fill-opacity:1;stroke:none;font-family:Sans' x='64.196304' y='1028.5818'><tspan id='tspan4225' sodipodi:role='line' style='font-size:12.39072514px' x='64.196304' y='1028.5818'>t<tspan id='tspan3071' style='font-size:9.9795475px;baseline-shift:sub'>1</tspan></tspan></text>
    </g>
    <g id='g4331' style='display:inline' transform='matrix(2.5974447,0,0,2.5974447,254.82927,-2768.0477)'>
      <path sodipodi:cx='54.810024' sodipodi:cy='57.550526' d='m 76.411623,57.550526 c 0,11.930233 -9.671365,21.601598 -21.601599,21.601598 -11.930233,0 -21.601598,-9.671365 -21.601598,-21.601598 0,-11.930234 9.671365,-21.601599 21.601598,-21.601599 11.930234,0 21.601599,9.671365 21.601599,21.601599 z' id='path2991' sodipodi:rx='21.601599' sodipodi:ry='21.601599' style='fill:#555753;fill-rule:evenodd;stroke:#2e3436;stroke-width:1px;stroke-linecap:butt;stroke-linejoin:miter;stroke-opacity:1' transform='matrix(0.52908462,0,0,0.52908462,92.645892,971.9259)' sodipodi:type='arc'/>
      <text id='text4231' sodipodi:linespacing='125%' xml:space='preserve' style='font-size:21.16338348px;font-style:normal;font-weight:normal;line-height:125%;letter-spacing:0px;word-spacing:0px;fill:#000000;fill-opacity:1;stroke:none;font-family:Sans' x='115.73682' y='1029.5111'><tspan id='tspan4233' sodipodi:role='line' style='font-size:12.39072514px' x='115.73682' y='1029.5111'>t<tspan id='tspan3073' style='font-size:9.9795475px;baseline-shift:sub'>2</tspan></tspan></text>
    </g>
    <g id='g4325' style='display:inline' transform='matrix(2.5974447,0,0,2.5974447,5.4746006,-2768.0477)'>
      <path sodipodi:cx='54.810024' sodipodi:cy='57.550526' d='m 76.411623,57.550526 c 0,11.930233 -9.671365,21.601598 -21.601599,21.601598 -11.930233,0 -21.601598,-9.671365 -21.601598,-21.601598 0,-11.930234 9.671365,-21.601599 21.601598,-21.601599 11.930234,0 21.601599,9.671365 21.601599,21.601599 z' id='path2993' sodipodi:rx='21.601599' sodipodi:ry='21.601599' style='fill:#d3d7cf;fill-rule:evenodd;stroke:#babdb6;stroke-width:1px;stroke-linecap:butt;stroke-linejoin:miter;stroke-opacity:1' transform='matrix(0.52908462,0,0,0.52908462,278.49618,971.9259)' sodipodi:type='arc'/>
      <text id='text4237' sodipodi:linespacing='125%' xml:space='preserve' style='font-size:21.16338348px;font-style:normal;font-weight:normal;line-height:125%;letter-spacing:0px;word-spacing:0px;fill:#000000;fill-opacity:1;stroke:none;font-family:Sans' x='301.71597' y='1029.2013'><tspan id='tspan4239' sodipodi:role='line' style='font-size:12.39072514px' x='301.71597' y='1029.2013'>t<tspan id='tspan3075' style='font-size:9.9795475px;baseline-shift:sub'>3</tspan></tspan></text>
    </g>
    <path inkscape:connector-curvature='0' d='m 137.34491,-165.18449 263.28305,0' id='path4353' sodipodi:nodetypes='cc' style='fill:none;stroke:#000000;stroke-width:2.59744477px;stroke-linecap:butt;stroke-linejoin:miter;stroke-opacity:1;marker-end:url(#Arrow2Lend);display:inline'/>
    <path inkscape:connector-curvature='0' d='m 480.10426,-165.18449 54.99232,0' id='path4905' sodipodi:nodetypes='cc' style='fill:none;stroke:#000000;stroke-width:2.59744477px;stroke-linecap:butt;stroke-linejoin:miter;stroke-opacity:1;marker-end:url(#Arrow2Lend);display:inline'/>
    <path inkscape:connector-curvature='0' d='m 604.88495,-165.18449 163.98165,0' id='path4907' sodipodi:nodetypes='cc' style='fill:none;stroke:#000000;stroke-width:2.59744477px;stroke-linecap:butt;stroke-linejoin:miter;stroke-opacity:1;marker-end:url(#Arrow2Lend);display:inline'/>
  </g>
  
  
  
  
  
  
  
</svg>
